{
  "data": {
    "curPage": 1,
    "datas": [
      {
        "apkLink": "",
        "audit": 1,
        "author": "",
        "canEdit": false,
        "chapterId": 502,
        "chapterName": "自助",
        "collect": false,
        "courseId": 13,
        "desc": "",
        "descMd": "",
        "envelopePic": "",
        "fresh": true,
        "host": "",
        "id": 21475,
        "link": "https://juejin.cn/post/7064862207216975909",
        "niceDate": "5小时前",
        "niceShareDate": "5小时前",
        "origin": "",
        "prefix": "",
        "projectLink": "",
        "publishTime": 1645068835000,
        "realSuperChapterId": 493,
        "selfVisible": 0,
        "shareDate": 1645068835000,
        "shareUser": "不近视的猫",
        "superChapterId": 494,
        "superChapterName": "广场Tab",
        "tags": [],
        "title": "自动更改versionCode",
        "type": 0,
        "userId": 85871,
        "visible": 1,
        "zan": 0
      },
      {
        "apkLink": "",
        "audit": 1,
        "author": "",
        "canEdit": false,
        "chapterId": 502,
        "chapterName": "自助",
        "collect": false,
        "courseId": 13,
        "desc": "",
        "descMd": "",
        "envelopePic": "",
        "fresh": true,
        "host": "",
        "id": 21473,
        "link": "https://www.jianshu.com/p/2008d6e66fb2",
        "niceDate": "7小时前",
        "niceShareDate": "7小时前",
        "origin": "",
        "prefix": "",
        "projectLink": "",
        "publishTime": 1645060578000,
        "realSuperChapterId": 493,
        "selfVisible": 0,
        "shareDate": 1645060578000,
        "shareUser": "hp1451193026",
        "superChapterId": 494,
        "superChapterName": "广场Tab",
        "tags": [],
        "title": "SPI（面向接口编程）-服务分发",
        "type": 0,
        "userId": 2058,
        "visible": 1,
        "zan": 0
      },
      {
        "apkLink": "",
        "audit": 1,
        "author": "张鸿洋",
        "canEdit": false,
        "chapterId": 543,
        "chapterName": "Android技术周报",
        "collect": false,
        "courseId": 13,
        "desc": "",
        "descMd": "",
        "envelopePic": "",
        "fresh": false,
        "host": "",
        "id": 21460,
        "link": "https://www.wanandroid.com/blog/show/3129",
        "niceDate": "1天前",
        "niceShareDate": "1天前",
        "origin": "",
        "prefix": "",
        "projectLink": "",
        "publishTime": 1644940800000,
        "realSuperChapterId": 542,
        "selfVisible": 0,
        "shareDate": 1644941400000,
        "shareUser": "",
        "superChapterId": 543,
        "superChapterName": "技术周报",
        "tags": [],
        "title": "Android 技术周刊 （2022-02-09 ~ 2022-02-16）",
        "type": 0,
        "userId": -1,
        "visible": 1,
        "zan": 0
      },
      {
        "apkLink": "",
        "audit": 1,
        "author": "谷歌开发者",
        "canEdit": false,
        "chapterId": 415,
        "chapterName": "谷歌开发者",
        "collect": false,
        "courseId": 13,
        "desc": "",
        "descMd": "",
        "envelopePic": "",
        "fresh": false,
        "host": "",
        "id": 21467,
        "link": "https://mp.weixin.qq.com/s/_dAGzsoZ2SPJKbxUv05cAA",
        "niceDate": "1天前",
        "niceShareDate": "19小时前",
        "origin": "",
        "prefix": "",
        "projectLink": "",
        "publishTime": 1644940800000,
        "realSuperChapterId": 407,
        "selfVisible": 0,
        "shareDate": 1645018702000,
        "shareUser": "",
        "superChapterId": 408,
        "superChapterName": "公众号",
        "tags": [
          {
            "name": "公众号",
            "url": "/wxarticle/list/415/1"
          }
        ],
        "title": "Flutter 快速解析 TextField 的内部原理 | 开发者说&middot;DTalk",
        "type": 0,
        "userId": -1,
        "visible": 1,
        "zan": 0
      },
      {
        "apkLink": "",
        "audit": 1,
        "author": "code小生",
        "canEdit": false,
        "chapterId": 414,
        "chapterName": "code小生",
        "collect": false,
        "courseId": 13,
        "desc": "",
        "descMd": "",
        "envelopePic": "",
        "fresh": false,
        "host": "",
        "id": 21468,
        "link": "https://mp.weixin.qq.com/s/qbqHlKt2v3_8XTwdDSEubw",
        "niceDate": "1天前",
        "niceShareDate": "19小时前",
        "origin": "",
        "prefix": "",
        "projectLink": "",
        "publishTime": 1644940800000,
        "realSuperChapterId": 407,
        "selfVisible": 0,
        "shareDate": 1645018716000,
        "shareUser": "",
        "superChapterId": 408,
        "superChapterName": "公众号",
        "tags": [
          {
            "name": "公众号",
            "url": "/wxarticle/list/414/1"
          }
        ],
        "title": "推荐学java&mdash;&mdash;Spring与web项目",
        "type": 0,
        "userId": -1,
        "visible": 1,
        "zan": 0
      },
      {
        "apkLink": "",
        "audit": 1,
        "author": "鸿洋",
        "canEdit": false,
        "chapterId": 408,
        "chapterName": "鸿洋",
        "collect": false,
        "courseId": 13,
        "desc": "",
        "descMd": "",
        "envelopePic": "",
        "fresh": false,
        "host": "",
        "id": 21469,
        "link": "https://mp.weixin.qq.com/s/KfebkWU135dl5xuTwbLQIQ",
        "niceDate": "1天前",
        "niceShareDate": "19小时前",
        "origin": "",
        "prefix": "",
        "projectLink": "",
        "publishTime": 1644940800000,
        "realSuperChapterId": 407,
        "selfVisible": 0,
        "shareDate": 1645018733000,
        "shareUser": "",
        "superChapterId": 408,
        "superChapterName": "公众号",
        "tags": [
          {
            "name": "公众号",
            "url": "/wxarticle/list/408/1"
          }
        ],
        "title": "更简单的Android网络请求库封装！",
        "type": 0,
        "userId": -1,
        "visible": 1,
        "zan": 0
      },
      {
        "apkLink": "",
        "audit": 1,
        "author": "郭霖",
        "canEdit": false,
        "chapterId": 409,
        "chapterName": "郭霖",
        "collect": false,
        "courseId": 13,
        "desc": "",
        "descMd": "",
        "envelopePic": "",
        "fresh": false,
        "host": "",
        "id": 21470,
        "link": "https://mp.weixin.qq.com/s/JxOYsV1cpwH7eSoLwBsF0Q",
        "niceDate": "1天前",
        "niceShareDate": "19小时前",
        "origin": "",
        "prefix": "",
        "projectLink": "",
        "publishTime": 1644940800000,
        "realSuperChapterId": 407,
        "selfVisible": 0,
        "shareDate": 1645018747000,
        "shareUser": "",
        "superChapterId": 408,
        "superChapterName": "公众号",
        "tags": [
          {
            "name": "公众号",
            "url": "/wxarticle/list/409/1"
          }
        ],
        "title": "折叠屏上应用设计规范，了解一下？",
        "type": 0,
        "userId": -1,
        "visible": 1,
        "zan": 0
      },
      {
        "apkLink": "",
        "audit": 1,
        "author": "鸿洋",
        "canEdit": false,
        "chapterId": 408,
        "chapterName": "鸿洋",
        "collect": false,
        "courseId": 13,
        "desc": "",
        "descMd": "",
        "envelopePic": "",
        "fresh": false,
        "host": "",
        "id": 21456,
        "link": "https://mp.weixin.qq.com/s/hMVHWSAUNZiVO9Aj9A3ufA",
        "niceDate": "2天前",
        "niceShareDate": "1天前",
        "origin": "",
        "prefix": "",
        "projectLink": "",
        "publishTime": 1644854400000,
        "realSuperChapterId": 407,
        "selfVisible": 0,
        "shareDate": 1644931996000,
        "shareUser": "",
        "superChapterId": 408,
        "superChapterName": "公众号",
        "tags": [
          {
            "name": "公众号",
            "url": "/wxarticle/list/408/1"
          }
        ],
        "title": "Android自定义View实现图形验证",
        "type": 0,
        "userId": -1,
        "visible": 1,
        "zan": 0
      },
      {
        "apkLink": "",
        "audit": 1,
        "author": "郭霖",
        "canEdit": false,
        "chapterId": 409,
        "chapterName": "郭霖",
        "collect": false,
        "courseId": 13,
        "desc": "",
        "descMd": "",
        "envelopePic": "",
        "fresh": false,
        "host": "",
        "id": 21457,
        "link": "https://mp.weixin.qq.com/s/UfxG41HInNfv9nkDvKpcZQ",
        "niceDate": "2天前",
        "niceShareDate": "1天前",
        "origin": "",
        "prefix": "",
        "projectLink": "",
        "publishTime": 1644854400000,
        "realSuperChapterId": 407,
        "selfVisible": 0,
        "shareDate": 1644932010000,
        "shareUser": "",
        "superChapterId": 408,
        "superChapterName": "公众号",
        "tags": [
          {
            "name": "公众号",
            "url": "/wxarticle/list/409/1"
          }
        ],
        "title": "一文让你彻底理解LeakCanary的工作原理",
        "type": 0,
        "userId": -1,
        "visible": 1,
        "zan": 0
      },
      {
        "apkLink": "",
        "audit": 1,
        "author": "Android群英传",
        "canEdit": false,
        "chapterId": 413,
        "chapterName": "Android群英传",
        "collect": false,
        "courseId": 13,
        "desc": "",
        "descMd": "",
        "envelopePic": "",
        "fresh": false,
        "host": "",
        "id": 21458,
        "link": "https://mp.weixin.qq.com/s/cILUqx1fnFMdHgSxU1Zuvw",
        "niceDate": "2天前",
        "niceShareDate": "1天前",
        "origin": "",
        "prefix": "",
        "projectLink": "",
        "publishTime": 1644854400000,
        "realSuperChapterId": 407,
        "selfVisible": 0,
        "shareDate": 1644932028000,
        "shareUser": "",
        "superChapterId": 408,
        "superChapterName": "公众号",
        "tags": [
          {
            "name": "公众号",
            "url": "/wxarticle/list/413/1"
          }
        ],
        "title": "Flutter混编工程之Engine复用",
        "type": 0,
        "userId": -1,
        "visible": 1,
        "zan": 0
      },
      {
        "apkLink": "",
        "audit": 1,
        "author": "",
        "canEdit": false,
        "chapterId": 437,
        "chapterName": "oom killer",
        "collect": false,
        "courseId": 13,
        "desc": "",
        "descMd": "",
        "envelopePic": "",
        "fresh": false,
        "host": "",
        "id": 21443,
        "link": "http://gityuan.com/2016/09/17/android-lowmemorykiller/",
        "niceDate": "2天前",
        "niceShareDate": "2天前",
        "origin": "",
        "prefix": "",
        "projectLink": "",
        "publishTime": 1644853715000,
        "realSuperChapterId": 152,
        "selfVisible": 0,
        "shareDate": 1644834712000,
        "shareUser": "鸿洋",
        "superChapterId": 171,
        "superChapterName": "framework",
        "tags": [],
        "title": "Android LowMemoryKiller原理分析 - Gityuan博客 | 袁辉辉的技术博客",
        "type": 0,
        "userId": 2,
        "visible": 1,
        "zan": 0
      },
      {
        "apkLink": "",
        "audit": 1,
        "author": "",
        "canEdit": false,
        "chapterId": 78,
        "chapterName": "性能优化",
        "collect": false,
        "courseId": 13,
        "desc": "",
        "descMd": "",
        "envelopePic": "",
        "fresh": false,
        "host": "",
        "id": 21446,
        "link": "https://juejin.cn/post/7062298563769794597",
        "niceDate": "2天前",
        "niceShareDate": "2天前",
        "origin": "",
        "prefix": "",
        "projectLink": "",
        "publishTime": 1644853600000,
        "realSuperChapterId": 53,
        "selfVisible": 0,
        "shareDate": 1644846863000,
        "shareUser": "鸿洋",
        "superChapterId": 195,
        "superChapterName": "热门专题",
        "tags": [],
        "title": "Android技能树点亮计划-Trace的使用",
        "type": 0,
        "userId": 2,
        "visible": 1,
        "zan": 0
      },
      {
        "apkLink": "",
        "audit": 1,
        "author": "",
        "canEdit": false,
        "chapterId": 260,
        "chapterName": "RxJava &amp; Retrofit &amp; MVP",
        "collect": false,
        "courseId": 13,
        "desc": "",
        "descMd": "",
        "envelopePic": "",
        "fresh": false,
        "host": "",
        "id": 21447,
        "link": "https://juejin.cn/post/7064379439160770590",
        "niceDate": "2天前",
        "niceShareDate": "2天前",
        "origin": "",
        "prefix": "",
        "projectLink": "",
        "publishTime": 1644853588000,
        "realSuperChapterId": 156,
        "selfVisible": 0,
        "shareDate": 1644846911000,
        "shareUser": "鸿洋",
        "superChapterId": 135,
        "superChapterName": "项目必备",
        "tags": [],
        "title": "为什么 RxJava 有 Single / Maybe 等单发数据类型，而 Flow 没有？",
        "type": 0,
        "userId": 2,
        "visible": 1,
        "zan": 0
      },
      {
        "apkLink": "",
        "audit": 1,
        "author": "",
        "canEdit": false,
        "chapterId": 169,
        "chapterName": "gradle",
        "collect": false,
        "courseId": 13,
        "desc": "",
        "descMd": "",
        "envelopePic": "",
        "fresh": false,
        "host": "",
        "id": 21448,
        "link": "https://juejin.cn/post/7064350945756332040",
        "niceDate": "2天前",
        "niceShareDate": "2天前",
        "origin": "",
        "prefix": "",
        "projectLink": "",
        "publishTime": 1644853228000,
        "realSuperChapterId": 150,
        "selfVisible": 0,
        "shareDate": 1644846915000,
        "shareUser": "鸿洋",
        "superChapterId": 60,
        "superChapterName": "开发环境",
        "tags": [],
        "title": "关于 Gradle 你应该知道的知识点",
        "type": 0,
        "userId": 2,
        "visible": 1,
        "zan": 0
      },
      {
        "apkLink": "",
        "audit": 1,
        "author": "",
        "canEdit": false,
        "chapterId": 502,
        "chapterName": "自助",
        "collect": false,
        "courseId": 13,
        "desc": "",
        "descMd": "",
        "envelopePic": "",
        "fresh": false,
        "host": "",
        "id": 21432,
        "link": "https://juejin.cn/post/7062149411253518350",
        "niceDate": "2022-02-14 00:41",
        "niceShareDate": "2022-02-13 16:48",
        "origin": "",
        "prefix": "",
        "projectLink": "",
        "publishTime": 1644770484000,
        "realSuperChapterId": 493,
        "selfVisible": 0,
        "shareDate": 1644742133000,
        "shareUser": "鸿洋",
        "superChapterId": 494,
        "superChapterName": "广场Tab",
        "tags": [],
        "title": "Android源码&mdash;&mdash;WebView拉起软键盘的流程浅析",
        "type": 0,
        "userId": 2,
        "visible": 1,
        "zan": 0
      },
      {
        "apkLink": "",
        "audit": 1,
        "author": "",
        "canEdit": false,
        "chapterId": 502,
        "chapterName": "自助",
        "collect": false,
        "courseId": 13,
        "desc": "",
        "descMd": "",
        "envelopePic": "",
        "fresh": false,
        "host": "",
        "id": 21426,
        "link": "https://juejin.cn/post/7062603177958473759",
        "niceDate": "2022-02-14 00:41",
        "niceShareDate": "2022-02-13 16:45",
        "origin": "",
        "prefix": "",
        "projectLink": "",
        "publishTime": 1644770478000,
        "realSuperChapterId": 493,
        "selfVisible": 0,
        "shareDate": 1644741905000,
        "shareUser": "鸿洋",
        "superChapterId": 494,
        "superChapterName": "广场Tab",
        "tags": [],
        "title": "谷歌工程师的小彩蛋",
        "type": 0,
        "userId": 2,
        "visible": 1,
        "zan": 0
      },
      {
        "apkLink": "",
        "audit": 1,
        "author": "",
        "canEdit": false,
        "chapterId": 502,
        "chapterName": "自助",
        "collect": false,
        "courseId": 13,
        "desc": "",
        "descMd": "",
        "envelopePic": "",
        "fresh": false,
        "host": "",
        "id": 21430,
        "link": "https://juejin.cn/post/7063337847893262349",
        "niceDate": "2022-02-14 00:41",
        "niceShareDate": "2022-02-13 16:47",
        "origin": "",
        "prefix": "",
        "projectLink": "",
        "publishTime": 1644770472000,
        "realSuperChapterId": 493,
        "selfVisible": 0,
        "shareDate": 1644742026000,
        "shareUser": "鸿洋",
        "superChapterId": 494,
        "superChapterName": "广场Tab",
        "tags": [],
        "title": "Android应用OutOfMemory -- 2.你对Bitmap了解有多少？",
        "type": 0,
        "userId": 2,
        "visible": 1,
        "zan": 0
      },
      {
        "apkLink": "",
        "audit": 1,
        "author": "",
        "canEdit": false,
        "chapterId": 502,
        "chapterName": "自助",
        "collect": false,
        "courseId": 13,
        "desc": "",
        "descMd": "",
        "envelopePic": "",
        "fresh": false,
        "host": "",
        "id": 21433,
        "link": "https://juejin.cn/post/7057539248668278791",
        "niceDate": "2022-02-14 00:41",
        "niceShareDate": "2022-02-13 16:49",
        "origin": "",
        "prefix": "",
        "projectLink": "",
        "publishTime": 1644770467000,
        "realSuperChapterId": 493,
        "selfVisible": 0,
        "shareDate": 1644742158000,
        "shareUser": "鸿洋",
        "superChapterId": 494,
        "superChapterName": "广场Tab",
        "tags": [],
        "title": "JAVA进阶之类加载阶段详解",
        "type": 0,
        "userId": 2,
        "visible": 1,
        "zan": 0
      },
      {
        "apkLink": "",
        "audit": 1,
        "author": "",
        "canEdit": false,
        "chapterId": 502,
        "chapterName": "自助",
        "collect": false,
        "courseId": 13,
        "desc": "",
        "descMd": "",
        "envelopePic": "",
        "fresh": false,
        "host": "",
        "id": 21434,
        "link": "https://juejin.cn/post/7060337237761720334",
        "niceDate": "2022-02-14 00:41",
        "niceShareDate": "2022-02-13 16:49",
        "origin": "",
        "prefix": "",
        "projectLink": "",
        "publishTime": 1644770460000,
        "realSuperChapterId": 493,
        "selfVisible": 0,
        "shareDate": 1644742167000,
        "shareUser": "鸿洋",
        "superChapterId": 494,
        "superChapterName": "广场Tab",
        "tags": [],
        "title": "gradle编译打包过程分析之ProcessAndroidResources",
        "type": 0,
        "userId": 2,
        "visible": 1,
        "zan": 0
      },
      {
        "apkLink": "",
        "audit": 1,
        "author": "鸿洋",
        "canEdit": false,
        "chapterId": 408,
        "chapterName": "鸿洋",
        "collect": false,
        "courseId": 13,
        "desc": "",
        "descMd": "",
        "envelopePic": "",
        "fresh": false,
        "host": "",
        "id": 21451,
        "link": "https://mp.weixin.qq.com/s/FDSZaPTfPvQsL4zyWE3LfQ",
        "niceDate": "2022-02-14 00:00",
        "niceShareDate": "2天前",
        "origin": "",
        "prefix": "",
        "projectLink": "",
        "publishTime": 1644768000000,
        "realSuperChapterId": 407,
        "selfVisible": 0,
        "shareDate": 1644848726000,
        "shareUser": "",
        "superChapterId": 408,
        "superChapterName": "公众号",
        "tags": [
          {
            "name": "公众号",
            "url": "/wxarticle/list/408/1"
          }
        ],
        "title": "Android真的推荐用MVI模式？MVI和MVVM有什么区别？",
        "type": 0,
        "userId": -1,
        "visible": 1,
        "zan": 0
      }
    ],
    "offset": 0,
    "over": false,
    "pageCount": 593,
    "size": 20,
    "total": 11846
  },
  "errorCode": 0,
  "errorMsg": ""
}